Section 2 Data Acquisition | A Minimal Book Example
…
## Large request will require: 2 additional pulls.

## Request chunk 1

## Request chunk 2

## Request complete!

F_latest %>% mutate(year = "latest")

## # A tibble: 266 x 11
##    control instnm ccbasic stabbr npt4_pub npt4_priv costt4_a grad_debt_mdn
##      <int> <chr>    <int> <chr>     <int>     <int>    <int>         <dbl>
##  1       1 India~      16 IN        10987        NA    20704         22343
##  2       1 Unive~      15 KS        18571        NA    24996         21105
##  3       2 Bosto~      15 MA           NA     33562    70588         16939
##  4       1 Oakla~      16 MI        11560        NA    21231         25000
##  5       1 Unive~      15 MS        13857        NA    24822         19500
##  6       1 Misso~      16 MO        14205        NA    22012         24750
##  7       2 Washi~      15 MO           NA     27427    71975         16075
##  8       1 Monta~      15 MT        18036        NA    20464         23500
##  9       1 Unive~      16 NE        13511        NA    18849         20250
## 10       1 Unive~      15 NV        10551        NA    17582         18750
## # ... with 256 more rows, and 3 more variables: avgfacsal <int>,
## #   unemp_rate <dbl>, year <chr>

F_2018 %>% mutate(year = 2018)

## # A tibble: 266 x 11
##    control instnm ccbasic stabbr npt4_pub npt4_priv costt4_a grad_debt_mdn
##      <int> <chr>    <int> <chr>     <int>     <int>    <int> <lgl>        
##  1       1 India~      16 IN        10987        NA    20704 NA           
##  2       1 Unive~      15 KS        18571        NA    24996 NA           
##  3       2 Bosto~      15 MA           NA     33562    70588 NA           
##  4       1 Oakla~      16 MI        11560        NA    21231 NA           
##  5       1 Unive~      15 MS        13857        NA    24822 NA           
##  6       1 Misso~      16 MO        14205        NA    22012 NA           
##  7       2 Washi~      15 MO           NA     27427    71975 NA           
##  8       1 Monta~      15 MT        18036        NA    20464 NA           
##  9       1 Unive~      16 NE        13511        NA    18849 NA           
## 10       1 Unive~      15 NV        10551        NA    17582 NA           
## # ... with 256 more rows, and 3 more variables: avgfacsal <int>,
## #   unemp_rate <lgl>, year <dbl>

F_2017 %>% mutate(year = 2017)

## # A tibble: 266 x 11
##    control instnm ccbasic stabbr npt4_pub npt4_priv costt4_a grad_debt_mdn
##      <int> <chr>    <int> <chr>     <int>     <int>    <int>         <dbl>
##  1       1 India~      16 IN        12021        NA    20352         22343
##  2       1 Unive~      15 KS        18814        NA    24824         21105
##  3       2 Bosto~      15 MA           NA     34550    68039         16939
##  4       1 Oakla~      16 MI        12779        NA    21262         25000
##  5       1 Unive~      15 MS        13929        NA    23606         19500
##  6       1 Misso~      16 MO        14473        NA    22045         24750
##  7       2 Washi~      15 MO           NA     28540    69754         16075
##  8       1 Monta~      15 MT        17754        NA    19980         23500
##  9       1 Unive~      16 NE        13173        NA    17935         20250
## 10       1 Unive~      15 NV        10555        NA    16964         18750
## # ... with 256 more rows, and 3 more variables: avgfacsal <int>,
## #   unemp_rate <lgl>, year <dbl>

F_2016 %>% mutate(year = 2016)

## # A tibble: 266 x 11
##    control instnm ccbasic stabbr npt4_pub npt4_priv costt4_a grad_debt_mdn
##      <int> <chr>    <int> <chr>     <int>     <int>    <int>         <dbl>
##  1       1 India~      16 IN        12417        NA    20451        22668.
##  2       1 Unive~      15 KS        18234        NA    23687        20500 
##  3       2 Bosto~      15 MA           NA     34356    65595        19000 
##  4       1 Oakla~      16 MI        12415        NA    20502        25000 
##  5       1 Unive~      15 MS        14494        NA    23372        19500 
##  6       1 Misso~      16 MO        14303        NA    21698        24250 
##  7       2 Washi~      15 MO           NA     29957    67751        19500 
##  8       1 Monta~      15 MT        17050        NA    19441        23505 
##  9       1 Unive~      16 NE        12899        NA    17712        19500 
## 10       1 Unive~      15 NV        10726        NA    17131        18500 
## # ... with 256 more rows, and 3 more variables: avgfacsal <int>,
## #   unemp_rate <lgl>, year <dbl>

F_2015 %>% mutate(year = 2015)

## # A tibble: 266 x 11
##    control instnm ccbasic stabbr npt4_pub npt4_priv costt4_a grad_debt_mdn
##      <int> <chr>    <int> <chr>     <int>     <int>    <int>         <dbl>
##  1       1 India~      16 IN        12861        NA    20257        23000 
##  2       1 Unive~      15 KS        18755        NA    23733        20454 
##  3       2 Bosto~      15 MA           NA     33661    62968        19000 
##  4       1 Oakla~      16 MI        11929        NA    19475        25000 
##  5       1 Unive~      15 MS        14284        NA    22704        19500 
##  6       1 Misso~      16 MO        14096        NA    21793        24266.
##  7       2 Washi~      15 MO           NA     32873    65887        19500 
##  8       1 Monta~      15 MT        16809        NA    18961        23683 
##  9       1 Unive~      16 NE        12505        NA    17148        19032 
## 10       1 Unive~      15 NV        10915        NA    16791        18750 
## # ... with 256 more rows, and 3 more variables: avgfacsal <int>,
## #   unemp_rate <lgl>, year <dbl>
…
## Large request will require: 2 additional pulls.

## Request chunk 1

## Request chunk 2

## Request complete!

D_latest %>% mutate(year = "latest")

## # A tibble: 266 x 24
##    control instnm ccbasic stabbr female first_gen poverty_rate  veteran
##      <int> <chr>    <int> <chr>   <dbl>     <dbl>        <dbl>    <dbl>
##  1       1 India~      16 IN      0.610     0.351         6.20  0.00394
##  2       1 Unive~      15 KS      0.548     0.222         5.24  0.00429
##  3       2 Bosto~      15 MA      0.519     0.132         5.93 NA      
##  4       1 Oakla~      16 MI      0.608     0.324         5.74  0.00231
##  5       1 Unive~      15 MS      0.608     0.235        12.2   0.00176
##  6       1 Misso~      16 MO      0.241     0.225         7.31 NA      
##  7       2 Washi~      15 MO      0.534     0.114         6.17 NA      
##  8       1 Monta~      15 MT      0.493     0.233         8.58  0.00493
##  9       1 Unive~      16 NE      0.561     0.348         5.36  0.00304
## 10       1 Unive~      15 NV      0.597     0.423         7.25  0.00521
## # ... with 256 more rows, and 16 more variables: unemp_rate <dbl>,
## #   ugds_white <dbl>, ugds_black <dbl>, ugds_hisp <dbl>, ugds_asian <dbl>,
## #   ugds_aian <dbl>, ugds_nhpi <dbl>, ugds_2mor <dbl>, ugds_nra <dbl>,
## #   ugds_unkn <dbl>, ugds_whitenh <lgl>, ugds_blacknh <lgl>, ugds_api <lgl>,
## #   ugds_aianold <lgl>, ugds_hispold <lgl>, year <chr>

D_2018 %>% mutate(year = 2018)

## # A tibble: 266 x 24
##    control instnm ccbasic stabbr female first_gen poverty_rate veteran
##      <int> <chr>    <int> <chr>  <lgl>  <lgl>     <lgl>        <lgl>  
##  1       1 India~      16 IN     NA     NA        NA           NA     
##  2       1 Unive~      15 KS     NA     NA        NA           NA     
##  3       2 Bosto~      15 MA     NA     NA        NA           NA     
##  4       1 Oakla~      16 MI     NA     NA        NA           NA     
##  5       1 Unive~      15 MS     NA     NA        NA           NA     
##  6       1 Misso~      16 MO     NA     NA        NA           NA     
##  7       2 Washi~      15 MO     NA     NA        NA           NA     
##  8       1 Monta~      15 MT     NA     NA        NA           NA     
##  9       1 Unive~      16 NE     NA     NA        NA           NA     
## 10       1 Unive~      15 NV     NA     NA        NA           NA     
## # ... with 256 more rows, and 16 more variables: unemp_rate <lgl>,
## #   ugds_white <dbl>, ugds_black <dbl>, ugds_hisp <dbl>, ugds_asian <dbl>,
## #   ugds_aian <dbl>, ugds_nhpi <dbl>, ugds_2mor <dbl>, ugds_nra <dbl>,
## #   ugds_unkn <dbl>, ugds_whitenh <lgl>, ugds_blacknh <lgl>, ugds_api <lgl>,
## #   ugds_aianold <lgl>, ugds_hispold <lgl>, year <dbl>

D_2017 %>% mutate(year = 2017)

## # A tibble: 266 x 24
##    control instnm ccbasic stabbr female first_gen poverty_rate veteran
##      <int> <chr>    <int> <chr>  <lgl>  <lgl>     <lgl>        <lgl>  
##  1       1 India~      16 IN     NA     NA        NA           NA     
##  2       1 Unive~      15 KS     NA     NA        NA           NA     
##  3       2 Bosto~      15 MA     NA     NA        NA           NA     
##  4       1 Oakla~      16 MI     NA     NA        NA           NA     
##  5       1 Unive~      15 MS     NA     NA        NA           NA     
##  6       1 Misso~      16 MO     NA     NA        NA           NA     
##  7       2 Washi~      15 MO     NA     NA        NA           NA     
##  8       1 Monta~      15 MT     NA     NA        NA           NA     
##  9       1 Unive~      16 NE     NA     NA        NA           NA     
## 10       1 Unive~      15 NV     NA     NA        NA           NA     
## # ... with 256 more rows, and 16 more variables: unemp_rate <lgl>,
## #   ugds_white <dbl>, ugds_black <dbl>, ugds_hisp <dbl>, ugds_asian <dbl>,
## #   ugds_aian <dbl>, ugds_nhpi <dbl>, ugds_2mor <dbl>, ugds_nra <dbl>,
## #   ugds_unkn <dbl>, ugds_whitenh <lgl>, ugds_blacknh <lgl>, ugds_api <lgl>,
## #   ugds_aianold <lgl>, ugds_hispold <lgl>, year <dbl>

D_2016 %>% mutate(year = 2016)

## # A tibble: 266 x 24
##    control instnm ccbasic stabbr female first_gen poverty_rate  veteran
##      <int> <chr>    <int> <chr>   <dbl>     <dbl> <lgl>           <dbl>
##  1       1 India~      16 IN      0.610     0.351 NA            0.00394
##  2       1 Unive~      15 KS      0.548     0.222 NA            0.00429
##  3       2 Bosto~      15 MA      0.519     0.132 NA           NA      
##  4       1 Oakla~      16 MI      0.608     0.324 NA            0.00231
##  5       1 Unive~      15 MS      0.608     0.235 NA            0.00176
##  6       1 Misso~      16 MO      0.241     0.225 NA           NA      
##  7       2 Washi~      15 MO      0.534     0.114 NA           NA      
##  8       1 Monta~      15 MT      0.493     0.233 NA            0.00493
##  9       1 Unive~      16 NE      0.561     0.348 NA            0.00304
## 10       1 Unive~      15 NV      0.597     0.423 NA            0.00521
## # ... with 256 more rows, and 16 more variables: unemp_rate <lgl>,
## #   ugds_white <dbl>, ugds_black <dbl>, ugds_hisp <dbl>, ugds_asian <dbl>,
## #   ugds_aian <dbl>, ugds_nhpi <dbl>, ugds_2mor <dbl>, ugds_nra <dbl>,
## #   ugds_unkn <dbl>, ugds_whitenh <lgl>, ugds_blacknh <lgl>, ugds_api <lgl>,
## #   ugds_aianold <lgl>, ugds_hispold <lgl>, year <dbl>

D_2015 %>% mutate(year = 2015)

## # A tibble: 266 x 24
##    control instnm ccbasic stabbr female first_gen poverty_rate  veteran
##      <int> <chr>    <int> <chr>   <dbl>     <dbl> <lgl>           <dbl>
##  1       1 India~      16 IN      0.607    0.361  NA            0.00390
##  2       1 Unive~      15 KS      0.536    0.226  NA            0.00534
##  3       2 Bosto~      15 MA      0.532    0.125  NA           NA      
##  4       1 Oakla~      16 MI      0.599    0.325  NA            0.00207
##  5       1 Unive~      15 MS      0.613    0.226  NA            0.00209
##  6       1 Misso~      16 MO      0.228    0.226  NA           NA      
##  7       2 Washi~      15 MO      0.541    0.0897 NA           NA      
##  8       1 Monta~      15 MT      0.492    0.231  NA            0.00589
##  9       1 Unive~      16 NE      0.55     0.337  NA            0.00492
## 10       1 Unive~      15 NV      0.586    0.419  NA            0.00573
## # ... with 256 more rows, and 16 more variables: unemp_rate <lgl>,
## #   ugds_white <dbl>, ugds_black <dbl>, ugds_hisp <dbl>, ugds_asian <dbl>,
## #   ugds_aian <dbl>, ugds_nhpi <dbl>, ugds_2mor <dbl>, ugds_nra <dbl>,
## #   ugds_unkn <dbl>, ugds_whitenh <lgl>, ugds_blacknh <lgl>, ugds_api <lgl>,
## #   ugds_aianold <lgl>, ugds_hispold <lgl>, year <dbl>
…
## Large request will require: 2 additional pulls.

## Request chunk 1

## Request chunk 2

## Request complete!

Dth_latest %>% mutate(year = "latest")

## # A tibble: 266 x 25
##    control instnm ccbasic stabbr death_yr2_rt lo_inc_death_yr~ md_inc_death_yr~
##      <int> <chr>    <int> <chr>         <dbl> <lgl>            <lgl>           
##  1       1 India~      16 IN               NA NA               NA              
##  2       1 Unive~      15 KS               NA NA               NA              
##  3       2 Bosto~      15 MA               NA NA               NA              
##  4       1 Oakla~      16 MI               NA NA               NA              
##  5       1 Unive~      15 MS               NA NA               NA              
##  6       1 Misso~      16 MO               NA NA               NA              
##  7       2 Washi~      15 MO               NA NA               NA              
##  8       1 Monta~      15 MT               NA NA               NA              
##  9       1 Unive~      16 NE               NA NA               NA              
## 10       1 Unive~      15 NV               NA NA               NA              
## # ... with 256 more rows, and 18 more variables: hi_inc_death_yr2_rt <lgl>,
## #   death_yr3_rt <dbl>, lo_inc_death_yr3_rt <lgl>, md_inc_death_yr3_rt <lgl>,
## #   hi_inc_death_yr3_rt <lgl>, death_yr4_rt <dbl>, lo_inc_death_yr4_rt <dbl>,
## #   md_inc_death_yr4_rt <dbl>, hi_inc_death_yr4_rt <lgl>, death_yr6_rt <dbl>,
## #   lo_inc_death_yr6_rt <dbl>, md_inc_death_yr6_rt <dbl>,
## #   hi_inc_death_yr6_rt <lgl>, death_yr8_rt <dbl>, lo_inc_death_yr8_rt <dbl>,
## #   md_inc_death_yr8_rt <dbl>, hi_inc_death_yr8_rt <lgl>, year <chr>

Dth_2018 %>% mutate(year = 2018)

## # A tibble: 266 x 25
##    control instnm ccbasic stabbr death_yr2_rt lo_inc_death_yr~ md_inc_death_yr~
##      <int> <chr>    <int> <chr>  <lgl>        <lgl>            <lgl>           
##  1       1 India~      16 IN     NA           NA               NA              
##  2       1 Unive~      15 KS     NA           NA               NA              
##  3       2 Bosto~      15 MA     NA           NA               NA              
##  4       1 Oakla~      16 MI     NA           NA               NA              
##  5       1 Unive~      15 MS     NA           NA               NA              
##  6       1 Misso~      16 MO     NA           NA               NA              
##  7       2 Washi~      15 MO     NA           NA               NA              
##  8       1 Monta~      15 MT     NA           NA               NA              
##  9       1 Unive~      16 NE     NA           NA               NA              
## 10       1 Unive~      15 NV     NA           NA               NA              
## # ... with 256 more rows, and 18 more variables: hi_inc_death_yr2_rt <lgl>,
## #   death_yr3_rt <lgl>, lo_inc_death_yr3_rt <lgl>, md_inc_death_yr3_rt <lgl>,
## #   hi_inc_death_yr3_rt <lgl>, death_yr4_rt <lgl>, lo_inc_death_yr4_rt <lgl>,
## #   md_inc_death_yr4_rt <lgl>, hi_inc_death_yr4_rt <lgl>, death_yr6_rt <lgl>,
## #   lo_inc_death_yr6_rt <lgl>, md_inc_death_yr6_rt <lgl>,
## #   hi_inc_death_yr6_rt <lgl>, death_yr8_rt <lgl>, lo_inc_death_yr8_rt <lgl>,
## #   md_inc_death_yr8_rt <lgl>, hi_inc_death_yr8_rt <lgl>, year <dbl>

Dth_2017 %>% mutate(year = 2017)

## # A tibble: 266 x 25
##    control instnm ccbasic stabbr death_yr2_rt lo_inc_death_yr~ md_inc_death_yr~
##      <int> <chr>    <int> <chr>  <lgl>        <lgl>            <lgl>           
##  1       1 India~      16 IN     NA           NA               NA              
##  2       1 Unive~      15 KS     NA           NA               NA              
##  3       2 Bosto~      15 MA     NA           NA               NA              
##  4       1 Oakla~      16 MI     NA           NA               NA              
##  5       1 Unive~      15 MS     NA           NA               NA              
##  6       1 Misso~      16 MO     NA           NA               NA              
##  7       2 Washi~      15 MO     NA           NA               NA              
##  8       1 Monta~      15 MT     NA           NA               NA              
##  9       1 Unive~      16 NE     NA           NA               NA              
## 10       1 Unive~      15 NV     NA           NA               NA              
## # ... with 256 more rows, and 18 more variables: hi_inc_death_yr2_rt <lgl>,
## #   death_yr3_rt <lgl>, lo_inc_death_yr3_rt <lgl>, md_inc_death_yr3_rt <lgl>,
## #   hi_inc_death_yr3_rt <lgl>, death_yr4_rt <lgl>, lo_inc_death_yr4_rt <lgl>,
## #   md_inc_death_yr4_rt <lgl>, hi_inc_death_yr4_rt <lgl>, death_yr6_rt <lgl>,
## #   lo_inc_death_yr6_rt <lgl>, md_inc_death_yr6_rt <lgl>,
## #   hi_inc_death_yr6_rt <lgl>, death_yr8_rt <lgl>, lo_inc_death_yr8_rt <lgl>,
## #   md_inc_death_yr8_rt <lgl>, hi_inc_death_yr8_rt <lgl>, year <dbl>

Dth_2016 %>% mutate(year = 2016)

## # A tibble: 266 x 25
##    control instnm ccbasic stabbr death_yr2_rt lo_inc_death_yr~ md_inc_death_yr~
##      <int> <chr>    <int> <chr>         <dbl> <lgl>            <lgl>           
##  1       1 India~      16 IN               NA NA               NA              
##  2       1 Unive~      15 KS               NA NA               NA              
##  3       2 Bosto~      15 MA               NA NA               NA              
##  4       1 Oakla~      16 MI               NA NA               NA              
##  5       1 Unive~      15 MS               NA NA               NA              
##  6       1 Misso~      16 MO               NA NA               NA              
##  7       2 Washi~      15 MO               NA NA               NA              
##  8       1 Monta~      15 MT               NA NA               NA              
##  9       1 Unive~      16 NE               NA NA               NA              
## 10       1 Unive~      15 NV               NA NA               NA              
## # ... with 256 more rows, and 18 more variables: hi_inc_death_yr2_rt <lgl>,
## #   death_yr3_rt <dbl>, lo_inc_death_yr3_rt <lgl>, md_inc_death_yr3_rt <lgl>,
## #   hi_inc_death_yr3_rt <lgl>, death_yr4_rt <dbl>, lo_inc_death_yr4_rt <dbl>,
## #   md_inc_death_yr4_rt <dbl>, hi_inc_death_yr4_rt <lgl>, death_yr6_rt <dbl>,
## #   lo_inc_death_yr6_rt <dbl>, md_inc_death_yr6_rt <dbl>,
## #   hi_inc_death_yr6_rt <lgl>, death_yr8_rt <dbl>, lo_inc_death_yr8_rt <dbl>,
## #   md_inc_death_yr8_rt <dbl>, hi_inc_death_yr8_rt <lgl>, year <dbl>
…
